-------------------------------------------------------------------------------
Test set: writers_E2E.E2E_Branch
-------------------------------------------------------------------------------
Tests run: 3, Failures: 0, Errors: 0, Skipped: 0, Time elapsed: 7.023 s - in writers_E2E.E2E_Branch
